{
	"sectors": [
		{	"path":"3D",
			"loop": false,
			"timing": 0,
			"position": {
				"x": 0,
				"y": 0
			},
			"size": {
				"width": 7680,
				"height": 4320
			},
			"images":[
				"Render3.png"
			]
		},
		{	"path":"3D",
			"loop": false,
			"timing": 0,
			"position": {
				"x": 7680,
				"y": 0
			},
			"size": {
				"width": 1920,
				"height": 1080
			},
			"images":[
				"Inside1.png"
			]
		},
		{	"path":"3D",
			"loop": false,
			"timing": 0,
			"position": {
				"x": 7680,
				"y": 1080
			},
			"size": {
				"width": 1920,
				"height": 1080
			},
			"images":[
				"fill.png"
			]
		},
		{	"path":"3D",
			"loop": false,
			"timing": 0,
			"position": {
				"x": 7680,
				"y": 2160
			},
			"size": {
				"width": 1920,
				"height": 1080
			},
			"images":[
				"Detail2.png"
			]
		},
		{	"path":"3D",
			"loop": false,
			"timing": 0,
			"position": {
				"x": 7680,
				"y": 3240
			},
			"size": {
				"width": 1920,
				"height": 1080
			},
			"images":[
				"fill.png"
			]
		}
	]
}