{
	"sectors": [
		{	"path":"Vec",
			"loop": false,
			"timing": 0,
			"position": {
				"x": 0,
				"y": 0
			},
			"size": {
				"width": 1920,
				"height": 4320
			},
			"images":[
				"yeet.png"
			]
		},
		{	"path":"Vec",
			"loop": false,
			"timing": 0,
			"position": {
				"x": 1920,
				"y": 0
			},
			"size": {
				"width": 3840,
				"height": 4320
			},
			"images":[
				"Uloha2Obr2.png"
			]
		},
		{	"path":"Vec",
			"loop": false,
			"timing": 0,
			"position": {
				"x": 5760,
				"y": 0
			},
			"size": {
				"width": 3840,
				"height": 4320
			},
			"images":[
				"Uloha2Obr3.png"
			]
		}
	]
}