{
	"sectors": [
		{	"path":"3D",
			"loop": false,
			"timing": 0,
			"position": {
				"x": 1920,
				"y": 0
			},
			"size": {
				"width": 7680,
				"height": 2160
			},
			"images":[
				"Render1-4K.png"
			]
		},
		{	"path":"3D",
			"loop": false,
			"timing": 0,
			"position": {
				"x": 0,
				"y": 0
			},
			"size": {
				"width": 1920,
				"height": 2160
			},
			"images":[
				"fill3.png"
			]
		},
		{	"path":"3D",
			"loop": false,
			"timing": 0,
			"position": {
				"x": 3840,
				"y": 2160
			},
			"size": {
				"width": 1920,
				"height": 1080
			},
			"images":[
				"Composing.png"
			]
		},
		{	"path":"3D",
			"loop": false,
			"timing": 0,
			"position": {
				"x": 3840,
				"y": 3240
			},
			"size": {
				"width": 1920,
				"height": 1080
			},
			"images":[
				"fill.png"
			]
		},
		{	"path":"3D",
			"loop": false,
			"timing": 0,
			"position": {
				"x": 0,
				"y": 2160
			},
			"size": {
				"width": 3840,
				"height": 2160
			},
			"images":[
				"Detail1.png"
			]
		},
		{	"path":"3D",
			"loop": true,
			"timing": 10,
			"position": {
				"x": 5760,
				"y": 2160
			},
			"size": {
				"width": 3840,
				"height": 2160
			},
			"images":[
				"Render4.png",
				"Inside1.png",
				"Detail2.png"
			]
		}
	]
}